{
  "ContentEncoding": null,
  "ContentType": null,
  "Data": {
    "success": true,
    "message": "Cart Fetched Successfully",
    "CartData": {
      "AffiliationLines": [],
      "IsRequiredAmountPaid": false,
      "IsDiscountFullyCalculated": true,
      "AmountDue": 26.75,
      "AmountPaid": 0,
      "AttributeValues": [],
      "BeginDateTime": "2017-01-09T04:02:52.686-05:00",
      "BusinessDate": null,
      "CancellationChargeAmount": null,
      "EstimatedShippingAmount": null,
      "CartLines": [
        {
          "LineId": "037d1cbc3eab45a880806c49576529b4",
          "TaxOverrideCode": null,
          "ItemId": "9727772013",
          "Barcode": "",
          "Description": "",
          "InventoryDimensionId": "",
          "Comment": "",
          "ProductId": 68719482371,
          "WarehouseId": "HOUSTON",
          "Quantity": 1,
          "Price": 9.99,
          "ExtendedPrice": 8.99,
          "TaxAmount": 0.56,
          "ItemTaxGroupId": "RP",
          "TotalAmount": 9.55,
          "NetAmountWithoutTax": 8.99,
          "DiscountAmount": 1,
          "LineDiscount": 0,
          "LinePercentageDiscount": 0,
          "LineManualDiscountPercentage": 0,
          "LineManualDiscountAmount": 0,
          "UnitOfMeasureSymbol": "ea",
          "ShippingAddress": null,
          "DeliveryMode": "",
          "DeliveryModeChargeAmount": null,
          "RequestedDeliveryDate": null,
          "ReturnTransactionId": "",
          "ReturnLineNumber": 0,
          "ReturnInventTransId": "",
          "IsVoided": false,
          "IsGiftCardLine": false,
          "IsPriceKeyedIn": false,
          "SalesStatusValue": 0,
          "QuantityOrdered": null,
          "QuantityInvoiced": null,
          "FulfillmentStoreId": "",
          "SerialNumber": "",
          "ElectronicDeliveryEmail": "",
          "ElectronicDeliveryEmailContent": "",
          "IsPriceOverridden": false,
          "OriginalPrice": null,
          "IsInvoiceLine": false,
          "InvoiceId": "",
          "InvoiceAmount": 0,
          "PromotionLines": [],
          "DiscountLines": [
            {
              "SaleLineNumber": 1,
              "OfferId": "ST100027",
              "OfferName": "Drink better with 10% off",
              "Amount": 0,
              "EffectiveAmount": 1,
              "Percentage": 10,
              "DealPrice": 0,
              "DiscountLineTypeValue": 2,
              "ManualDiscountTypeValue": 0,
              "CustomerDiscountTypeValue": 0,
              "PeriodicDiscountTypeValue": 2,
              "DiscountApplicationGroup": "9727772013",
              "ConcurrencyModeValue": 0,
              "IsCompoundable": false,
              "DiscountCode": "",
              "PricingPriorityNumber": 0,
              "IsDiscountCodeRequired": false,
              "ThresholdAmountRequired": 0,
              "ExtensionProperties": []
            }
          ],
          "ReasonCodeLines": [],
          "ChargeLines": [],
          "TaxRatePercent": 5.6056056056056056056056056056,
          "IsCustomerAccountDeposit": false,
          "LinkedParentLineId": null,
          "ExtensionProperties": []
        },
        {
          "LineId": "865cc2da5a254044a7dc8f064b025de3",
          "TaxOverrideCode": null,
          "ItemId": "9727772798",
          "Barcode": "",
          "Description": "",
          "InventoryDimensionId": "",
          "Comment": "",
          "ProductId": 68719483121,
          "WarehouseId": "HOUSTON",
          "Quantity": 1,
          "Price": 17.99,
          "ExtendedPrice": 16.19,
          "TaxAmount": 1.01,
          "ItemTaxGroupId": "RP",
          "TotalAmount": 17.2,
          "NetAmountWithoutTax": 16.19,
          "DiscountAmount": 1.8,
          "LineDiscount": 0,
          "LinePercentageDiscount": 0,
          "LineManualDiscountPercentage": 0,
          "LineManualDiscountAmount": 0,
          "UnitOfMeasureSymbol": "ea",
          "ShippingAddress": null,
          "DeliveryMode": "",
          "DeliveryModeChargeAmount": null,
          "RequestedDeliveryDate": null,
          "ReturnTransactionId": "",
          "ReturnLineNumber": 0,
          "ReturnInventTransId": "",
          "IsVoided": false,
          "IsGiftCardLine": false,
          "IsPriceKeyedIn": false,
          "SalesStatusValue": 0,
          "QuantityOrdered": null,
          "QuantityInvoiced": null,
          "FulfillmentStoreId": "",
          "SerialNumber": "",
          "ElectronicDeliveryEmail": "",
          "ElectronicDeliveryEmailContent": "",
          "IsPriceOverridden": false,
          "OriginalPrice": null,
          "IsInvoiceLine": false,
          "InvoiceId": "",
          "InvoiceAmount": 0,
          "PromotionLines": [],
          "DiscountLines": [
            {
              "SaleLineNumber": 2,
              "OfferId": "ST100027",
              "OfferName": "Drink better with 10% off",
              "Amount": 0,
              "EffectiveAmount": 1.8,
              "Percentage": 10,
              "DealPrice": 0,
              "DiscountLineTypeValue": 2,
              "ManualDiscountTypeValue": 0,
              "CustomerDiscountTypeValue": 0,
              "PeriodicDiscountTypeValue": 2,
              "DiscountApplicationGroup": "9727772798",
              "ConcurrencyModeValue": 0,
              "IsCompoundable": false,
              "DiscountCode": "",
              "PricingPriorityNumber": 0,
              "IsDiscountCodeRequired": false,
              "ThresholdAmountRequired": 0,
              "ExtensionProperties": []
            }
          ],
          "ReasonCodeLines": [],
          "ChargeLines": [],
          "TaxRatePercent": 5.6142301278488048916064480267,
          "IsCustomerAccountDeposit": false,
          "LinkedParentLineId": null,
          "ExtensionProperties": []
        }
      ],
      "CartTypeValue": 1,
      "ChannelId": 5637144592,
      "ChargeAmount": 0,
      "ChargeLines": [],
      "TaxViewLines": [],
      "Comment": "",
      "InvoiceComment": "",
      "CustomerId": "004021",
      "CustomerOrderModeValue": 0,
      "DeliveryMode": null,
      "DeliveryModeChargeAmount": null,
      "DiscountAmount": 2.8,
      "DiscountCodes": [],
      "Id": "FcxY0kqZjEojHQ2JfIxuWctOmjVL8thJ",
      "TransactionTypeValue": -1,
      "CustomerAccountDepositLines": [],
      "IncomeExpenseLines": [],
      "IncomeExpenseTotalAmount": 0,
      "IsReturnByReceipt": false,
      "ReturnTransactionHasLoyaltyPayment": false,
      "IsFavorite": false,
      "IsRecurring": false,
      "IsSuspended": false,
      "LoyaltyCardId": "",
      "ModifiedDateTime": "2017-01-09T04:03:08.04-05:00",
      "Name": null,
      "OrderNumber": null,
      "AvailableDepositAmount": 0,
      "OverriddenDepositAmount": null,
      "PrepaymentAmountPaid": 0,
      "PrepaymentAppliedOnPickup": 0,
      "PromotionLines": [],
      "QuotationExpiryDate": null,
      "ReasonCodeLines": [],
      "ReceiptEmail": null,
      "RequestedDeliveryDate": null,
      "RequiredDepositAmount": 0,
      "SalesId": null,
      "ShippingAddress": null,
      "StaffId": null,
      "SubtotalAmount": 25.18,
      "SubtotalAmountWithoutTax": 25.18,
      "TaxAmount": 1.57,
      "TaxOnCancellationCharge": 0,
      "TaxOverrideCode": null,
      "TenderLines": [],
      "TerminalId": "",
      "TotalAmount": 26.75,
      "TotalManualDiscountAmount": 0,
      "TotalManualDiscountPercentage": 0,
      "WarehouseId": "HOUSTON",
      "IsCreatedOffline": false,
      "CartStatusValue": 1,
      "ReceiptTransactionTypeValue": 1,
      "ExtensionProperties": []
    }
  },
  "JsonRequestBehavior": 1,
  "MaxJsonLength": null,
  "RecursionLimit": null
}