{
  "greetings": [
    {
      "greet": "Hi ....\nWhat can i do for you?"
    },
    {
      "greet": "Hi ..!\nHow can i help you?"
    },
    {
      "greet": "Hey ..!\nWhat can i do for you?"
    },
    {
      "greet": "Hey ....\nHow can i help you?"
    }
  ]
}