{
  "locations": [
    {
      "place": "Amsterdam",
      "lat": 52.372912,
      "lng": 4.892269,
      "address": "Kalverstraat 185-187,\n 1012 XC \n Amsterdam, Netherlands"
    },
    {
      "place": "Mumbai",
      "lat": 18.975,
      "lng": 72.8258,
      "address": "Infiniti Mall, Malad West,\n Mumbai,\n Maharashtra, India"
    },
    {
      "place": "Chennai",
      "lat": 13.0827,
      "lng": 80.2707,
      "address": "The Forum Vijaya Mall,\n Vadapalani,\n Chennai, Tamil Nadu, India"
    }
  ]
}

