[
  {
    "$id": "1",
    "SalesId": "012829",
    "OrderStatus": "Open order",
    "CustAccount": "004021",
    "InvoiceId": "",
    "DlvMode": "bopis",
    "DateCreated": "2017/01/09T09:04:49",
    "Datedelivered": "T00:00:00",
    "Items": [
      {
        "$id": "2",
        "ItemId": "9727772013",
        "ProductName": "Wine Glass - Red Stem",
        "ProdCategory": "Drinkware",
        "UnitPrice": 9.99,
        "Qty": 1,
        "LineAmount": 9.99,
        "Image": "Products/9727772013_000_001.png",
        "ProductId": 68719482371
      },
      {
        "$id": "3",
        "ItemId": "9727772798",
        "ProductName": "Martini Glass - Red Stem",
        "ProdCategory": "Drinkware",
        "UnitPrice": 17.99,
        "Qty": 1,
        "LineAmount": 17.99,
        "Image": "Products/9727772798_000_001.png",
        "ProductId": 68719483121
      }
    ]
  },
  {
    "$id": "4",
    "SalesId": "012828",
    "OrderStatus": "Open order",
    "CustAccount": "004021",
    "InvoiceId": "",
    "DlvMode": "bopis",
    "DateCreated": "2017/01/09T09:04:49",
    "Datedelivered": "T00:00:00",
    "Items": [
      {
        "$id": "5",
        "ItemId": "9727772013",
        "ProductName": "Wine Glass - Red Stem",
        "ProdCategory": "Drinkware",
        "UnitPrice": 9.99,
        "Qty": 1,
        "LineAmount": 9.99,
        "Image": "Products/9727772013_000_001.png",
        "ProductId": 68719482371
      },
      {
        "$id": "6",
        "ItemId": "9727772798",
        "ProductName": "Martini Glass - Red Stem",
        "ProdCategory": "Drinkware",
        "UnitPrice": 17.99,
        "Qty": 1,
        "LineAmount": 17.99,
        "Image": "Products/9727772798_000_001.png",
        "ProductId": 68719483121
      }
    ]
  }
]