{
  "@odata.context": "https://jdaretailmatedevret.cloudax.dynamics.com/Commerce/$metadata#Collection(Microsoft.Dynamics.Commerce.Runtime.DataModel.ProductSearchResult)",
  "value": [
    {
      "ItemId": "9727772013",
      "Name": "Wine Glass - Red Stem",
      "Price": 9.99,
      "PrimaryImageUrl": "Products/9727772013_000_001.png",
      "RecordId": 68719482371,
      "ExtensionProperties": []
    },
    {
      "ItemId": "9727772798",
      "Name": "Martini Glass - Red Stem",
      "Price": 17.99,
      "PrimaryImageUrl": "Products/9727772798_000_001.png",
      "RecordId": 68719483121,
      "ExtensionProperties": []
    },
    {
      "ItemId": "9727775011",
      "Name": "Sitting British Bulldog Figurine - Blue",
      "Price": 40,
      "PrimaryImageUrl": "Products/9727775011_000_001.png",
      "RecordId": 68719483872,
      "ExtensionProperties": []
    }
  ]
}